<?xml version="1.0" encoding="UTF-8"?>
<svg xmlns="http://www.w3.org/2000/svg" xmlns:xlink="http://www.w3.org/1999/xlink" width="30pt" height="30.000001pt" viewBox="0 0 30 30.000001" version="1.2">
<defs>
<clipPath id="clip1">
  <path d="M 5.257812 2.171875 L 24.855469 2.171875 L 24.855469 26.847656 L 5.257812 26.847656 Z M 5.257812 2.171875 "/>
</clipPath>
<clipPath id="clip2">
  <path d="M 6 8 L 24.855469 8 L 24.855469 26.847656 L 6 26.847656 Z M 6 8 "/>
</clipPath>
<clipPath id="clip3">
  <path d="M 14 15 L 24.855469 15 L 24.855469 26.847656 L 14 26.847656 Z M 14 15 "/>
</clipPath>
</defs>
<g id="surface1">
<g clip-path="url(#clip1)" clip-rule="nonzero">
<path style=" stroke:none;fill-rule:nonzero;fill:rgb(25.489807%,90.19928%,68.629456%);fill-opacity:1;" d="M 16.738281 26.554688 C 16.355469 26.554688 15.976562 26.539062 15.605469 26.503906 C 15.214844 26.539062 14.804688 26.554688 14.382812 26.554688 C 9.523438 26.554688 5.566406 21.988281 5.566406 16.378906 C 5.566406 15.894531 5.859375 15.859375 5.949219 15.859375 C 6.328125 15.859375 6.6875 16.394531 8.191406 19.21875 L 8.425781 19.652344 C 8.503906 19.804688 8.621094 19.878906 8.769531 19.878906 C 8.945312 19.878906 9.136719 19.769531 9.234375 19.609375 C 9.320312 19.464844 9.320312 19.3125 9.238281 19.152344 C 7.902344 16.664062 7.390625 13.597656 7.714844 10.039062 C 8.238281 4.265625 11.75 3.230469 13.632812 2.675781 C 13.863281 2.609375 14.082031 2.542969 14.261719 2.480469 C 14.296875 2.46875 14.335938 2.460938 14.371094 2.460938 C 14.390625 2.460938 14.410156 2.464844 14.425781 2.464844 C 14.539062 2.472656 14.640625 2.546875 14.679688 2.652344 C 14.722656 2.765625 14.691406 2.894531 14.601562 2.972656 C 13.945312 3.546875 13.613281 4.136719 13.585938 4.777344 C 13.527344 6.125 14.8125 7.628906 16.539062 9.433594 C 17.699219 7.855469 17.6875 6.773438 16.523438 5.753906 C 16.429688 5.675781 16.398438 5.546875 16.441406 5.4375 C 16.484375 5.328125 16.582031 5.253906 16.695312 5.25 C 16.714844 5.246094 16.730469 5.246094 16.746094 5.246094 C 16.785156 5.246094 16.820312 5.25 16.855469 5.261719 C 17.007812 5.316406 17.222656 5.355469 17.46875 5.40625 C 18.410156 5.589844 19.832031 5.871094 20.765625 7.320312 C 21.96875 9.183594 22.003906 12.378906 20.871094 17.09375 C 20.785156 17.449219 20.859375 17.703125 20.945312 17.8125 C 20.996094 17.875 21.042969 17.882812 21.078125 17.882812 C 21.15625 17.882812 21.253906 17.835938 21.363281 17.75 C 22.046875 17.207031 23.007812 16.558594 23.703125 16.558594 C 23.902344 16.558594 24.546875 16.632812 24.546875 17.546875 C 24.546875 22.515625 21.042969 26.554688 16.738281 26.554688 "/>
<path style=" stroke:none;fill-rule:nonzero;fill:rgb(45.098877%,100%,81.568909%);fill-opacity:1;" d="M 14.371094 2.171875 C 14.300781 2.171875 14.230469 2.183594 14.164062 2.207031 C 13.992188 2.269531 13.789062 2.328125 13.550781 2.398438 C 11.597656 2.972656 7.96875 4.042969 7.421875 10.015625 C 7.09375 13.628906 7.617188 16.75 8.980469 19.289062 C 9.019531 19.371094 9.011719 19.414062 8.984375 19.460938 C 8.9375 19.539062 8.835938 19.589844 8.769531 19.589844 C 8.75 19.589844 8.722656 19.589844 8.683594 19.515625 C 8.605469 19.375 8.53125 19.230469 8.453125 19.082031 C 8.035156 18.304688 7.605469 17.496094 7.238281 16.875 C 6.632812 15.851562 6.355469 15.570312 5.949219 15.570312 C 5.679688 15.570312 5.445312 15.730469 5.339844 15.988281 C 5.296875 16.097656 5.277344 16.222656 5.277344 16.378906 C 5.277344 19.15625 6.210938 21.773438 7.910156 23.746094 C 9.636719 25.746094 11.933594 26.84375 14.382812 26.84375 C 14.800781 26.84375 15.214844 26.828125 15.605469 26.796875 C 15.976562 26.828125 16.355469 26.84375 16.738281 26.84375 C 18.917969 26.84375 20.960938 25.867188 22.496094 24.089844 C 24.003906 22.335938 24.835938 20.015625 24.835938 17.546875 C 24.835938 16.605469 24.25 16.269531 23.703125 16.269531 C 22.921875 16.269531 21.902344 16.953125 21.183594 17.523438 C 21.167969 17.535156 21.15625 17.546875 21.140625 17.554688 C 21.125 17.476562 21.113281 17.34375 21.15625 17.160156 C 22.308594 12.363281 22.261719 9.09375 21.011719 7.164062 C 20.007812 5.609375 18.453125 5.304688 17.523438 5.121094 C 17.289062 5.074219 17.085938 5.035156 16.953125 4.988281 L 16.949219 4.988281 C 16.882812 4.964844 16.816406 4.953125 16.746094 4.953125 C 16.714844 4.953125 16.6875 4.957031 16.664062 4.960938 C 16.441406 4.980469 16.25 5.125 16.167969 5.332031 C 16.082031 5.558594 16.148438 5.8125 16.328125 5.972656 C 17.308594 6.832031 17.378906 7.679688 16.503906 8.976562 C 15.160156 7.566406 13.824219 6.035156 13.878906 4.789062 C 13.902344 4.234375 14.203125 3.710938 14.792969 3.191406 C 14.976562 3.03125 15.039062 2.777344 14.953125 2.550781 C 14.875 2.339844 14.679688 2.195312 14.457031 2.175781 C 14.433594 2.175781 14.40625 2.171875 14.371094 2.171875 M 14.371094 2.753906 C 14.382812 2.753906 14.398438 2.757812 14.40625 2.757812 C 11.933594 4.925781 13.988281 7.203125 16.5625 9.878906 C 17.792969 8.320312 18.277344 6.90625 16.714844 5.539062 C 16.726562 5.539062 16.738281 5.535156 16.746094 5.535156 L 16.761719 5.535156 C 18.195312 6.039062 23.375 5.417969 20.589844 17.027344 C 20.4375 17.65625 20.667969 18.171875 21.078125 18.171875 C 21.214844 18.171875 21.375 18.113281 21.546875 17.976562 C 22.328125 17.355469 23.167969 16.851562 23.703125 16.851562 C 24.039062 16.851562 24.253906 17.050781 24.253906 17.546875 C 24.253906 22.363281 20.890625 26.265625 16.738281 26.265625 C 16.34375 26.265625 15.96875 26.246094 15.605469 26.214844 C 15.214844 26.246094 14.808594 26.265625 14.382812 26.265625 C 9.675781 26.265625 5.859375 21.839844 5.859375 16.378906 C 5.859375 16.21875 5.890625 16.148438 5.949219 16.148438 C 6.253906 16.148438 7.28125 18.128906 8.167969 19.789062 C 8.3125 20.058594 8.539062 20.171875 8.769531 20.171875 C 9.28125 20.171875 9.8125 19.617188 9.492188 19.019531 C 8.03125 16.285156 7.726562 13.113281 8.003906 10.066406 C 8.578125 3.792969 12.667969 3.347656 14.359375 2.753906 L 14.371094 2.753906 "/>
</g>
<path style=" stroke:none;fill-rule:nonzero;fill:rgb(100%,100%,100%);fill-opacity:1;" d="M 10.960938 5.410156 C 10.332031 5.90625 9.734375 6.582031 9.300781 7.523438 C 8.863281 8.464844 8.585938 9.667969 8.570312 11.210938 C 8.570312 11.289062 8.570312 11.367188 8.570312 11.441406 C 8.570312 13.113281 8.765625 14.8125 9.265625 16.421875 C 9.316406 16.574219 9.480469 16.660156 9.632812 16.613281 C 9.789062 16.566406 9.871094 16.402344 9.824219 16.25 C 9.34375 14.710938 9.152344 13.070312 9.152344 11.441406 C 9.152344 11.367188 9.152344 11.292969 9.15625 11.21875 C 9.171875 9.738281 9.433594 8.621094 9.828125 7.765625 C 10.226562 6.910156 10.753906 6.3125 11.324219 5.863281 C 11.449219 5.765625 11.46875 5.582031 11.371094 5.457031 C 11.269531 5.332031 11.085938 5.3125 10.960938 5.410156 "/>
<g clip-path="url(#clip2)" clip-rule="nonzero">
<path style=" stroke:none;fill-rule:nonzero;fill:rgb(2.349854%,79.60968%,53.729248%);fill-opacity:1;" d="M 16.738281 26.265625 C 16.34375 26.265625 15.96875 26.246094 15.605469 26.214844 C 15.214844 26.246094 14.808594 26.265625 14.382812 26.265625 L 14.316406 26.265625 C 14.316406 26.265625 14.316406 26.265625 14.3125 26.265625 L 14.257812 26.265625 C 14.257812 26.265625 14.257812 26.265625 14.253906 26.261719 L 14.226562 26.261719 C 11.085938 26.199219 8.359375 24.160156 6.929688 21.175781 C 7.816406 21.402344 8.742188 21.523438 9.695312 21.523438 C 10.644531 21.523438 11.570312 21.402344 12.453125 21.175781 C 13.042969 20.015625 13.027344 18.65625 12.402344 17.480469 C 11.402344 15.613281 11.023438 13.21875 11.285156 10.363281 C 11.332031 9.855469 11.402344 9.417969 11.492188 9.035156 C 12.269531 10.152344 13.253906 11.175781 14.183594 12.140625 L 16.808594 14.871094 L 17.933594 13.445312 C 17.824219 14.238281 17.648438 15.171875 17.386719 16.265625 C 17.203125 17.027344 17.207031 17.785156 17.378906 18.484375 C 19.621094 16.414062 21.042969 13.472656 21.042969 10.25 C 21.042969 9.480469 20.960938 8.726562 20.808594 8 C 21.476562 9.445312 21.695312 11.855469 20.832031 15.953125 C 20.832031 15.957031 20.828125 15.957031 20.828125 15.960938 C 20.828125 15.964844 20.828125 15.964844 20.828125 15.96875 C 20.824219 15.976562 20.824219 15.984375 20.824219 15.992188 C 20.820312 15.996094 20.820312 15.996094 20.820312 16 L 20.820312 16.003906 C 20.820312 16.003906 20.820312 16.003906 20.820312 16.007812 C 20.820312 16.011719 20.820312 16.011719 20.816406 16.011719 C 20.816406 16.015625 20.816406 16.015625 20.816406 16.019531 C 20.816406 16.019531 20.816406 16.019531 20.816406 16.023438 C 20.816406 16.023438 20.816406 16.027344 20.816406 16.027344 L 20.816406 16.03125 C 20.8125 16.03125 20.8125 16.035156 20.8125 16.035156 C 20.8125 16.035156 20.8125 16.035156 20.8125 16.039062 C 20.8125 16.046875 20.808594 16.058594 20.804688 16.070312 C 20.742188 16.355469 20.675781 16.652344 20.605469 16.957031 C 20.605469 16.960938 20.605469 16.964844 20.601562 16.964844 L 20.601562 16.96875 C 20.601562 16.96875 20.601562 16.972656 20.601562 16.972656 L 20.601562 16.976562 C 20.597656 16.980469 20.597656 16.984375 20.597656 16.992188 C 20.597656 16.996094 20.59375 16.996094 20.59375 17 C 20.59375 17.003906 20.59375 17.003906 20.59375 17.007812 C 20.59375 17.011719 20.589844 17.015625 20.589844 17.015625 C 20.589844 17.015625 20.589844 17.015625 20.589844 17.019531 C 20.589844 17.019531 20.589844 17.023438 20.589844 17.027344 L 20.589844 17.03125 C 20.511719 17.34375 20.535156 17.628906 20.621094 17.835938 C 20.710938 18.042969 20.871094 18.171875 21.078125 18.171875 C 21.214844 18.171875 21.375 18.113281 21.546875 17.976562 C 22.203125 17.457031 22.902344 17.015625 23.425781 16.886719 C 23.527344 16.863281 23.621094 16.851562 23.703125 16.851562 C 23.867188 16.851562 24 16.894531 24.09375 17 C 24.195312 17.109375 24.253906 17.289062 24.253906 17.546875 C 24.253906 22.363281 20.890625 26.265625 16.738281 26.265625 "/>
</g>
<g clip-path="url(#clip3)" clip-rule="nonzero">
<path style=" stroke:none;fill-rule:nonzero;fill:rgb(45.098877%,100%,81.568909%);fill-opacity:1;" d="M 16.738281 26.265625 C 16.34375 26.265625 15.96875 26.246094 15.605469 26.214844 C 15.214844 26.246094 14.808594 26.265625 14.382812 26.265625 L 14.378906 26.265625 L 14.382812 26.265625 C 14.808594 26.265625 15.214844 26.246094 15.605469 26.214844 C 15.96875 26.246094 16.34375 26.265625 16.738281 26.265625 C 20.890625 26.265625 24.253906 22.363281 24.253906 17.546875 C 24.253906 22.363281 20.890625 26.265625 16.738281 26.265625 M 14.375 26.265625 L 14.371094 26.265625 L 14.375 26.265625 M 14.371094 26.265625 L 14.363281 26.265625 L 14.371094 26.265625 M 14.363281 26.265625 L 14.355469 26.265625 L 14.363281 26.265625 M 14.355469 26.265625 L 14.351562 26.265625 L 14.355469 26.265625 M 14.347656 26.265625 L 14.34375 26.265625 L 14.347656 26.265625 M 14.339844 26.265625 L 14.335938 26.265625 L 14.339844 26.265625 M 14.335938 26.265625 L 14.328125 26.265625 L 14.335938 26.265625 M 14.328125 26.265625 L 14.320312 26.265625 L 14.328125 26.265625 M 14.320312 26.265625 L 14.316406 26.265625 L 14.320312 26.265625 M 14.3125 26.265625 L 14.308594 26.265625 L 14.3125 26.265625 M 14.304688 26.265625 L 14.300781 26.265625 L 14.304688 26.265625 M 14.300781 26.265625 L 14.296875 26.265625 L 14.300781 26.265625 M 14.292969 26.265625 L 14.289062 26.265625 L 14.292969 26.265625 M 14.285156 26.265625 L 14.28125 26.265625 L 14.285156 26.265625 M 14.277344 26.265625 L 14.273438 26.265625 L 14.277344 26.265625 M 14.269531 26.265625 L 14.269531 26.265625 M 14.261719 26.265625 L 14.261719 26.265625 M 14.257812 26.265625 C 14.257812 26.265625 14.257812 26.265625 14.253906 26.261719 C 14.257812 26.265625 14.257812 26.265625 14.257812 26.265625 M 14.242188 26.261719 L 14.242188 26.261719 M 21.078125 18.171875 C 20.871094 18.171875 20.710938 18.042969 20.621094 17.835938 C 20.710938 18.042969 20.871094 18.171875 21.078125 18.171875 C 21.214844 18.171875 21.375 18.113281 21.546875 17.976562 C 21.375 18.113281 21.214844 18.171875 21.078125 18.171875 M 20.589844 17.03125 L 20.589844 17.027344 C 20.589844 17.023438 20.589844 17.019531 20.589844 17.019531 C 20.589844 17.019531 20.589844 17.023438 20.589844 17.027344 L 20.589844 17.03125 M 20.589844 17.015625 C 20.589844 17.015625 20.59375 17.011719 20.59375 17.007812 C 20.59375 17.011719 20.589844 17.011719 20.589844 17.015625 M 20.59375 17.007812 C 20.59375 17.003906 20.59375 17.003906 20.59375 17 C 20.59375 17.003906 20.59375 17.003906 20.59375 17.007812 M 20.59375 17 C 20.59375 16.996094 20.597656 16.996094 20.597656 16.992188 C 20.597656 16.996094 20.59375 16.996094 20.59375 17 M 24.09375 17 C 24 16.894531 23.867188 16.851562 23.703125 16.851562 C 23.621094 16.851562 23.527344 16.863281 23.425781 16.886719 C 23.527344 16.863281 23.621094 16.851562 23.703125 16.851562 C 23.867188 16.851562 24 16.894531 24.09375 17 M 20.597656 16.992188 C 20.597656 16.984375 20.597656 16.980469 20.601562 16.976562 C 20.597656 16.980469 20.597656 16.984375 20.597656 16.992188 M 20.601562 16.972656 C 20.601562 16.972656 20.601562 16.96875 20.601562 16.96875 C 20.601562 16.96875 20.601562 16.972656 20.601562 16.972656 M 20.601562 16.964844 C 20.605469 16.964844 20.605469 16.960938 20.605469 16.957031 C 20.605469 16.960938 20.605469 16.964844 20.601562 16.964844 M 20.605469 16.957031 C 20.675781 16.652344 20.742188 16.355469 20.804688 16.070312 C 20.742188 16.355469 20.675781 16.652344 20.605469 16.957031 M 20.804688 16.070312 C 20.808594 16.058594 20.8125 16.046875 20.8125 16.039062 C 20.8125 16.046875 20.808594 16.058594 20.804688 16.070312 M 20.8125 16.035156 C 20.8125 16.035156 20.8125 16.03125 20.816406 16.03125 C 20.8125 16.03125 20.8125 16.035156 20.8125 16.035156 M 20.816406 16.027344 C 20.816406 16.027344 20.816406 16.023438 20.816406 16.023438 C 20.816406 16.023438 20.816406 16.027344 20.816406 16.027344 M 20.816406 16.019531 C 20.816406 16.015625 20.816406 16.015625 20.816406 16.011719 C 20.816406 16.015625 20.816406 16.019531 20.816406 16.019531 M 20.820312 16.007812 L 20.820312 16.007812 M 20.820312 16.003906 L 20.820312 16 L 20.820312 16.003906 M 20.824219 15.992188 L 20.824219 15.992188 M 20.828125 15.960938 L 20.828125 15.960938 "/>
</g>
</g>
</svg>
